('C:\\Users\\Khalil\\Desktop\\git_images_converter_to_black_and_white\\build\\tk_python\\out00-PKG.pkg',
 {'BINARY': 1,
  'DATA': 1,
  'EXECUTABLE': 1,
  'EXTENSION': 1,
  'PYMODULE': 1,
  'PYSOURCE': 1,
  'PYZ': 0},
 [('out00-PYZ.pyz',
   'C:\\Users\\Khalil\\Desktop\\git_images_converter_to_black_and_white\\build\\tk_python\\out00-PYZ.pyz',
   'PYZ'),
  ('struct',
   'c:\\users\\khalil\\appdata\\local\\programs\\python\\python36-32\\lib\\struct.pyo',
   'PYMODULE'),
  ('pyimod01_os_path',
   'c:\\users\\khalil\\appdata\\local\\programs\\python\\python36-32\\lib\\site-packages\\PyInstaller\\loader\\pyimod01_os_path.pyc',
   'PYMODULE'),
  ('pyimod02_archive',
   'c:\\users\\khalil\\appdata\\local\\programs\\python\\python36-32\\lib\\site-packages\\PyInstaller\\loader\\pyimod02_archive.pyc',
   'PYMODULE'),
  ('pyimod03_importers',
   'c:\\users\\khalil\\appdata\\local\\programs\\python\\python36-32\\lib\\site-packages\\PyInstaller\\loader\\pyimod03_importers.pyc',
   'PYMODULE'),
  ('pyiboot01_bootstrap',
   'c:\\users\\khalil\\appdata\\local\\programs\\python\\python36-32\\lib\\site-packages\\PyInstaller\\loader\\pyiboot01_bootstrap.py',
   'PYSOURCE'),
  ('pyi_rth__tkinter',
   'c:\\users\\khalil\\appdata\\local\\programs\\python\\python36-32\\lib\\site-packages\\PyInstaller\\loader\\rthooks\\pyi_rth__tkinter.py',
   'PYSOURCE'),
  ('tk_python',
   'C:\\Users\\Khalil\\Desktop\\git_images_converter_to_black_and_white\\tk_python.py',
   'PYSOURCE'),
  ('tk_python.exe.manifest',
   'C:\\Users\\Khalil\\Desktop\\git_images_converter_to_black_and_white\\build\\tk_python\\tk_python.exe.manifest',
   'BINARY')],
 True,
 False,
 False)
